 __  __                                            
|  \/  |                                           
| \  / | __ _ _______    __ _  __ _ _ __ ___   ___ 
| |\/| |/ _` |_  / _ \  / _` |/ _` | '_ ` _ \ / _ \
| |  | | (_| |/ /  __/ | (_| | (_| | | | | | |  __/
|_|  |_|\__,_/___\___|  \__, |\__,_|_| |_| |_|\___|
                         __/ |                     
                        |___/  By Jaxon Kneipp
